    1  git config --global user.email"r.polaco18@gmail.com"
    2  git config --global user.name"claudio romañuk"
    3  git config --global user.name "claudio romañuk"
    4  GIT CONFIT --GLOBAL LIST
    5  GIT NAME
    6  git user.email
    7  git config --global --list
    8  git clone https://gitlab.com/Polaco1988/ifts11.git
    9  git user.email
   10  git config --list
   11  ls
   12  cd ifts11
   13  ls
   14  git status
   15  git add ejemplo.txt
   16  git status
   17  git commit -m "primera actualizacion"
   18  git commit -m "primera acualizacion"
   19  git config --global user.email "r.polaco18@gmail.com"
   20  git config --global user.name "claudioromañuk"
   21  git commit -m "primera actualizacion"
   22  git push
   23  git pull
   24  git status
   25  git add .
   26  git commit -m "segundo commit"
   27  git push
   28  history > comandos.txt
